Albert Rapp - Forget regular heat maps. Use bubbles on a grid!
…
price_by_binned_size_and_zones <- price_by_size_and_zones |> 
  mutate(
    lot_area = cut(
      lot_area, 
      breaks = quantile(lot_area, probs = c(0, 0.1, 0.4, 0.5, 0.6, 0.8, 1)),
      include.lowest = T
    )
  ) |> 
  mutate(
    ms_zoning = str_replace_all(ms_zoning, "_", "\n")
  )
price_by_binned_size_and_zones

# A tibble: 2,901 × 3
   sale_price lot_area            ms_zoning                   
        <int> <fct>               <chr>                       
 1     215000 (1.22e+04,2.15e+05] "Residential\nLow\nDensity" 
 2     105000 (1.02e+04,1.22e+04] "Residential\nHigh\nDensity"
 3     172000 (1.22e+04,2.15e+05] "Residential\nLow\nDensity" 
 4     244000 (1.02e+04,1.22e+04] "Residential\nLow\nDensity" 
 5     189900 (1.22e+04,2.15e+05] "Residential\nLow\nDensity" 
 6     195500 (9.46e+03,1.02e+04] "Residential\nLow\nDensity" 
 7     213500 (4.8e+03,8.74e+03]  "Residential\nLow\nDensity" 
 8     191500 (4.8e+03,8.74e+03]  "Residential\nLow\nDensity" 
 9     236500 (4.8e+03,8.74e+03]  "Residential\nLow\nDensity" 
10     189000 (4.8e+03,8.74e+03]  "Residential\nLow\nDensity" 
# … with 2,891 more rows
# ℹ Use `print(n = ...)` to see more rows
…
