Albert Rapp - Storytelling in ggplot using rounded rectangles
…
    ),
    point_fill = if_else(
      inventory_turnover < store_lower,
      below_highlight,
      'white'
    ),
    point_size = if_else(
      inventory_turnover < store_lower,
      3,
      2
    )
  )
sorted_dat

# A tibble: 24 × 10
   locat…¹ inven…² store…³ store…⁴   num rect_…⁵ rect_…⁶ point…⁷ point…⁸ point…⁹
   <chr>     <dbl>   <dbl>   <dbl> <int> <chr>     <dbl> <chr>   <chr>     <dbl>
 1 Castle…    14.7    24.3    20      24 #009E73     0.5 #009E73 #009E73       3
 2 Wellsv…    13.6     7.6     2.5    23 grey70      1   black   white         2
 3 Basin …    12.7     8       4.5    22 grey70      1   black   white         2
 4 Atlant…    12.3    12.8     7.8    21 grey70      1   black   white         2
 5 Neverl…    12.1    18      13.4    20 #009E73     0.5 #009E73 #009E73       3
 6 Bluffi…    11.7     4.2     3      19 grey70      1   black   white         2
 7 Bikini…    11.6    12.5     7.8    18 grey70      1   black   white         2
 8 Metrop…    11.3    24      11.3    17 grey70      1   black   white         2
 9 Hill V…    11      22       7.5    16 grey70      1   black   white         2
10 Venusv…    10.4    15.5    12.3    15 #009E73     0.5 #009E73 #009E73       3
# … with 14 more rows, and abbreviated variable names ¹​location,
#   ²​inventory_turnover, ³​store_upper, ⁴​store_lower, ⁵​rect_color, ⁶​rect_alpha,
#   ⁷​point_color, ⁸​point_fill, ⁹​point_size
# ℹ Use `print(n = ...)` to see more rows
…
