Albert Rapp - The ultimate beginner’s guide to generalized linear models (GLMs)
…
    Published

      August 12, 2022

You may have never heard about generalized linear models (GLMs). But you’ve probably heard about logistic regression or Poisson regression. Both of them are special cases of GLMs.

There are even more special cases of GLMs. That’s because GLMs are versatile statistical models. And in this blog post we’re going to explore the mathematical foundations of these models. Actually, this post is based on one of my recent Twitter threads. You can think of this post as the long form version of that thread.

Here, I’ll add a few more details on the mathematical foundations of GLMs.1 More importantly, though, I will show you how to implement GLMs with R. We’ll learn both the {tidymodels} and the {stats} way of doing GLMs. So without further ado, let’s go.

Logistic regression

Let’s start with logistic regression. Assume that you have the following data about penguins.

# A tibble: 333 × 4
   sex    body_mass_g species bill_length_mm
   <fct>        <int> <fct>            <dbl>
 1 male          3750 Adelie            39.1
 2 female        3800 Adelie            39.5
 3 female        3250 Adelie            40.3
 4 female        3450 Adelie            36.7
 5 male          3650 Adelie            39.3
 6 female        3625 Adelie            38.9
 7 male          4675 Adelie            39.2
 8 female        3200 Adelie            41.1
 9 male          3800 Adelie            38.6
10 male          4400 Adelie            34.6
# … with 323 more rows
# ℹ Use `print(n = ...)` to see more rows
…
Now we can manually turn the predicted probabilities into sex predictions. That requires us to know whether the predicted probability refers to male or female penguins.

Strolling through the docs of glm() reveals that the second level in our response factor sex is considered a “success”. So that means the probability refers to male penguins (because that’s the second level of sex). Tricky, I know.

threshold <- 0.5
preds <- penguins_data %>% 
  mutate(
    prob.fit = glm.mod$fitted.values,
    prediction = if_else(prob.fit > threshold, 'male', 'female'),
    correct = if_else(sex == prediction, 'correct', 'incorrect')
  )
preds

# A tibble: 333 × 7
   sex    body_mass_g species bill_length_mm prob.fit prediction correct  
   <fct>        <int> <fct>            <dbl>    <dbl> <chr>      <chr>    
 1 male          3750 Adelie            39.1   0.693  male       correct  
 2 female        3800 Adelie            39.5   0.806  male       incorrect
 3 female        3250 Adelie            40.3   0.126  female     correct  
 4 female        3450 Adelie            36.7   0.0550 female     correct  
 5 male          3650 Adelie            39.3   0.559  male       correct  
 6 female        3625 Adelie            38.9   0.451  female     correct  
 7 male          4675 Adelie            39.2   0.999  male       correct  
 8 female        3200 Adelie            41.1   0.144  female     correct  
 9 male          3800 Adelie            38.6   0.700  male       correct  
10 male          4400 Adelie            34.6   0.925  male       correct  
# … with 323 more rows
# ℹ Use `print(n = ...)` to see more rows
…
