Albert Rapp - 6 Lessons that I learned from teaching R to non-programmers
…
Of course, you will have to make time for students to type. Once again: Plan to do less as students will be slower than you are. Also, make sure to ask students if they can execute the code. This can even have additional benefits. In one case, the students couldn’t execute the code we typed. From their description, I could tell that they forgot quotes as in x == 'text'. Thus, typing together can also generate teachable moments.

Start with ggplot

Some say vector manipulation should be the first thing to teach. I didn’t and this was one of the few things I wouldn’t change. My non-statistically inclined students seemed to find visual results more engaging than number/vector crunching. And once students can create graphics, the nice thing is that you can always refer back to that for motivation. Let me elaborate.

Shockingly, data wrangling does not have value in itself. I know that as mathematicians/statisticians/number crunchers it is hard to imagine that. However, incorporating a calculated value in a visualizations can generate insights. And many people find that more valuable. Take a look at two examples that use this idea. Both consider the ames data from {modeldata}.

library(tidyverse)
data(ames, package = 'modeldata')
dat <- ames %>% 
  janitor::clean_names() %>% 
  select(lot_area, sale_price, neighborhood)
dat
## # A tibble: 2,930 × 3
##    lot_area sale_price neighborhood
##       <int>      <int> <fct>       
##  1    31770     215000 North_Ames  
##  2    11622     105000 North_Ames  
##  3    14267     172000 North_Ames  
##  4    11160     244000 North_Ames  
##  5    13830     189900 Gilbert     
##  6     9978     195500 Gilbert     
##  7     4920     213500 Stone_Brook 
##  8     5005     191500 Stone_Brook 
##  9     5389     236500 Stone_Brook 
## 10     7500     189000 Gilbert     
## # … with 2,920 more rows
## # ℹ Use `print(n = ...)` to see more rows
…
