…
-   `get_followers()`: This is the function to get a list of an
    account's followers.
-   `get_timeline()`: This gives you the a user's timeline like tweets,
    replies and mentions.
-   `get_retweets()`: This gives you the most recent retweets of a given
    tweet.

My aforementioned R script just runs `get_followers()` and computes the
number of rows of the resulting tibble.

``` r
library(rtweet)
tib <- get_followers('rappa753')
tib
## # A tibble: 1,018 x 1
##    user_id            
##    <chr>              
##  1 778980355457941504 
##  2 561505786          
##  3 1265356152507940870
##  4 1095327279536730117
##  5 2508861812         
##  6 253373869          
##  7 2287065422         
##  8 1491615200         
##  9 1192011365243871232
## 10 1522471850177093632
## # ... with 1,008 more rows
…
