Albert Rapp - Alternative ways to visualize correlations
…
Our data set will be the Ames housing data set from {modeldata}. Since this data set contains many variables, we’ll just pick a few from them. Otherwise, we’ll have to work hard to visualize the correlations of MANY variables. Technically, that’s possible with large images but it won’t give us any more insights into the visualization process.

Also, for a real visual, we should probably relabel the variable names into something human-readable. But for simplicity, I skip that step in this demo.

library(tidyverse)
data(ames, package = 'modeldata')

ames_numeric <- ames %>% 
  janitor::clean_names() %>% 
  select(where(is.numeric)) %>% 
  select(1:10)
ames_numeric %>% print(n = 5)

# A tibble: 2,930 × 10
  lot_frontage lot_area year_b…¹ year_…² mas_v…³ bsmt_…⁴ bsmt_…⁵ bsmt_…⁶ total…⁷
         <dbl>    <int>    <int>   <int>   <dbl>   <dbl>   <dbl>   <dbl>   <dbl>
1          141    31770     1960    1960     112       2       0     441    1080
2           80    11622     1961    1961       0       6     144     270     882
3           81    14267     1958    1958     108       1       0     406    1329
4           93    11160     1968    1968       0       1       0    1045    2110
5           74    13830     1997    1998       0       3       0     137     928
# … with 2,925 more rows, 1 more variable: first_flr_sf <int>, and abbreviated
#   variable names ¹​year_built, ²​year_remod_add, ³​mas_vnr_area, ⁴​bsmt_fin_sf_1,
#   ⁵​bsmt_fin_sf_2, ⁶​bsmt_unf_sf, ⁷​total_bsmt_sf
# ℹ Use `print(n = ...)` to see more rows, and `colnames()` to see all variable names

Next, we’re going to compute the correlation matrix with cor(). Then, we make the resulting matrix into a tibble (keep the row names) and then pivot the tibble to rearrange the data.

correlations <- cor(ames_numeric) %>% 
  as_tibble(rownames = 'variable1') %>% 
  pivot_longer(cols = -1, names_to = 'variable2', values_to = 'correlation')
ames_numeric %>% print(n = 5)

# A tibble: 2,930 × 10
  lot_frontage lot_area year_b…¹ year_…² mas_v…³ bsmt_…⁴ bsmt_…⁵ bsmt_…⁶ total…⁷
         <dbl>    <int>    <int>   <int>   <dbl>   <dbl>   <dbl>   <dbl>   <dbl>
1          141    31770     1960    1960     112       2       0     441    1080
2           80    11622     1961    1961       0       6     144     270     882
3           81    14267     1958    1958     108       1       0     406    1329
4           93    11160     1968    1968       0       1       0    1045    2110
5           74    13830     1997    1998       0       3       0     137     928
# … with 2,925 more rows, 1 more variable: first_flr_sf <int>, and abbreviated
#   variable names ¹​year_built, ²​year_remod_add, ³​mas_vnr_area, ⁴​bsmt_fin_sf_1,
#   ⁵​bsmt_fin_sf_2, ⁶​bsmt_unf_sf, ⁷​total_bsmt_sf
# ℹ Use `print(n = ...)` to see more rows, and `colnames()` to see all variable names
…
construct pair labels

order pairs by their correlation

correlations <- triangle_correlations %>% 
  as_tibble(rownames = 'variable1') %>% 
  pivot_longer(cols = -1, names_to = 'variable2', values_to = 'correlation') %>% 
  filter(abs(correlation) > 0) %>% 
  mutate(
    pair = paste(variable1, variable2, sep = ' + '),
    pair = fct_reorder(pair, correlation)
  )
correlations %>% print(n = 5)

# A tibble: 45 × 4
  variable1      variable2    correlation pair                         
  <chr>          <chr>              <dbl> <fct>                        
1 lot_area       lot_frontage      0.137  lot_area + lot_frontage      
2 year_built     lot_frontage      0.0261 year_built + lot_frontage    
3 year_built     lot_area          0.0233 year_built + lot_area        
4 year_remod_add lot_frontage      0.0695 year_remod_add + lot_frontage
5 year_remod_add lot_area          0.0217 year_remod_add + lot_area    
# … with 40 more rows
# ℹ Use `print(n = ...)` to see more rows
…
