…
      'black'
    ),
    point_fill = if_else(
      inventory_turnover < store_lower,
      below_highlight,
      'white'
    ),
    point_size = if_else(
      inventory_turnover < store_lower,
      3,
      2
    )
  )
sorted_dat
## # A tibble: 24 x 10
##    location inventory_turno~ store_upper store_lower   num rect_color rect_alpha
##    <chr>               <dbl>       <dbl>       <dbl> <int> <chr>           <dbl>
##  1 Castle ~             14.7        24.3        20      24 #009E73           0.5
##  2 Wellsvi~             13.6         7.6         2.5    23 grey70            1  
##  3 Basin C~             12.7         8           4.5    22 grey70            1  
##  4 Atlantis             12.3        12.8         7.8    21 grey70            1  
##  5 Neverla~             12.1        18          13.4    20 #009E73           0.5
##  6 Bluffin~             11.7         4.2         3      19 grey70            1  
##  7 Bikini ~             11.6        12.5         7.8    18 grey70            1  
##  8 Metropo~             11.3        24          11.3    17 grey70            1  
##  9 Hill Va~             11          22           7.5    16 grey70            1  
## 10 Venusvi~             10.4        15.5        12.3    15 #009E73           0.5
## # ... with 14 more rows, and 3 more variables: point_color <chr>,
## #   point_fill <chr>, point_size <dbl>
```
…
