Albert Rapp - Is Success Luck or Hard Work?
…
Now, let us write a function that runs a single iteration of the selection process and marks applicants as either selected or not. We will denote the number of applicants to be picked via m. In our astronaut example it holds that \(m = 11\).

pick_applicants <- function(n, dist, m = 11) {
  applicants <- simulate_applicants(n, dist)
  
  applicants %>% 
    arrange(desc(overall)) %>% 
    mutate(selected = c(rep('yes', m), rep('no', n - m)))
}

n <- 18300
pick_applicants(n, normal_skills)

# A tibble: 18,300 × 4
   skill  luck overall selected
   <dbl> <dbl>   <dbl> <chr>   
 1  98.1 11.3     93.8 yes     
 2  97.4  5.56    92.8 yes     
 3  93.1 72.9     92.1 yes     
 4  93.2 60.5     91.6 yes     
 5  90.5 94.4     90.7 yes     
 6  94.3 15.4     90.4 yes     
 7  89.1 88.6     89.1 yes     
 8  89.4 76.1     88.7 yes     
 9  87.7 83.8     87.5 yes     
10  88.0 75.2     87.3 yes     
# … with 18,290 more rows
# ℹ Use `print(n = ...)` to see more rows
…
pick_applicants2 <- function(n, dist, m = 11, luck_thresh = 50) {
  applicants <- simulate_applicants(n, dist)
  
  applicants <- applicants %>%
    mutate(skill_rank = min_rank(desc(skill))) %>% 
    filter(luck > luck_thresh)
  
  applicants %>% 
    arrange(desc(skill)) %>% 
    mutate(selected = c(rep('yes', m), rep('no', nrow(applicants) - m)))
}

pick_applicants2(n, high_skills)

# A tibble: 49 × 5
   skill  luck overall skill_rank selected
   <dbl> <dbl>   <dbl>      <int> <chr>   
 1  99.9  87.4    99.3          1 yes     
 2  99.1  54.6    96.9          3 yes     
 3  98.8  54.5    96.6          5 yes     
 4  98.8  97.5    98.7          6 yes     
 5  98.2  90.6    97.8         10 yes     
 6  97.6  60.8    95.8         12 yes     
 7  97.0  87.0    96.5         13 yes     
 8  96.8  71.9    95.5         14 yes     
 9  96.7  97.0    96.8         16 yes     
10  96.6  55.1    94.5         18 yes     
# … with 39 more rows
# ℹ Use `print(n = ...)` to see more rows
…
