Albert Rapp - Use {lubridate} and {rtweet} to analyze your Twitter timeline
…
rtweet comes with a lot of convenient function. Most of these start with get_. For instance, there are

get_followers(): This is the function to get a list of an account’s followers.

get_timeline(): This gives you the a user’s timeline like tweets, replies and mentions.

get_retweets(): This gives you the most recent retweets of a given tweet.

My aforementioned R script just runs get_followers() and computes the number of rows of the resulting tibble.

library(rtweet)
tib <- get_followers('rappa753')
tib

# A tibble: 2,207 × 2
   from_id             to_id   
   <chr>               <chr>   
 1 1447053543786090504 rappa753
 2 254563418           rappa753
 3 382843130           rappa753
 4 1543220302296977408 rappa753
 5 1673477562          rappa753
 6 1308732763726589954 rappa753
 7 1549153427061501952 rappa753
 8 1387151657507692545 rappa753
 9 1374557861309775872 rappa753
10 1479882642413793284 rappa753
# … with 2,197 more rows
# ℹ Use `print(n = ...)` to see more rows
…
